\relax 
\citation{Chiou_05}
\citation{Khalil_14_01}
\citation{Behkam_06}
\citation{Pelrine_12}
\citation{Chiou_05}
\citation{Tamadazte_10}
\citation{Tung_13_01}
\citation{Pieters_14}
\citation{Carvalho_09}
\citation{Riviere_97}
\citation{Diller_13}
\citation{Cappeleri_11}
\citation{Ju_11}
\citation{Banerjee_13}
\citation{Arcese_13}
\citation{Belharet_10}
\citation{Temel_13}
\citation{Khalil_13}
\citation{Zhang_09}
\citation{Marino_14}
\@writefile{toc}{\contentsline {section}{\numberline {I}Introduction}{1}}
\@writefile{toc}{\contentsline {section}{\numberline {II}A Short Review of Existing Approaches to Unthethered Microrobot Motion Automation}{1}}
\newlabel{sec_lit}{{II}{1}}
\@writefile{toc}{\contentsline {subsection}{\numberline {II-A}Motion Planning}{1}}
\@writefile{toc}{\contentsline {subsection}{\numberline {II-B}Motion Control}{1}}
\citation{Ghanbari_14}
\citation{Arcese_13}
\citation{Belharet_10}
\citation{Belharet_12}
\citation{Kratochvil_14}
\citation{Abbott_07}
\citation{Peyer_13}
\@writefile{toc}{\contentsline {section}{\numberline {III}Automation System Design}{2}}
\@writefile{toc}{\contentsline {subsection}{\numberline {III-A}Physical System}{2}}
\newlabel{sec_rodbot}{{III-A.1}{2}}
\@writefile{toc}{\contentsline {subsubsection}{\numberline {III-A.1}The RodBot}{2}}
\newlabel{fig_rodbot}{{1a}{2}}
\newlabel{sub@fig_rodbot}{{(a)}{a}}
\newlabel{fig_minimag}{{1b}{2}}
\newlabel{sub@fig_minimag}{{(b)}{b}}
\@writefile{lof}{\contentsline {figure}{\numberline {1}{\ignorespaces (a) The RodBot, a rectangular rolling microrobot design (b) The MFG, an 8-coil magnetic field generator designed for the actuation of sub-$\SI {}{\milli \metre }$ and sub-$\SI {}{\micro \metre }$ devices.}}{2}}
\@writefile{lof}{\contentsline {subfigure}{\numberline{(a)}{\ignorespaces {}}}{2}}
\@writefile{lof}{\contentsline {subfigure}{\numberline{(b)}{\ignorespaces {}}}{2}}
\newlabel{fig_phys_system}{{1}{2}}
\@writefile{toc}{\contentsline {subsubsection}{\numberline {III-A.2}The MFG}{2}}
\@writefile{toc}{\contentsline {subsubsection}{\numberline {III-A.3}The Automation Loop}{2}}
\@writefile{toc}{\contentsline {subsection}{\numberline {III-B}Magnetic Actuation}{2}}
\newlabel{eq:mag_torque}{{1}{2}}
\newlabel{eq:i_to_b}{{2}{2}}
\citation{Canny_86}
\citation{Suzuki_85}
\citation{Karaman_11}
\citation{Likhachev_05}
\citation{Likhachev_05}
\newlabel{fig_rodbot_feature_select_1}{{2a}{3}}
\newlabel{sub@fig_rodbot_feature_select_1}{{(a)}{a}}
\newlabel{fig_rodbot_feature_select_2}{{2b}{3}}
\newlabel{sub@fig_rodbot_feature_select_2}{{(b)}{b}}
\@writefile{lof}{\contentsline {figure}{\numberline {2}{\ignorespaces  Feature selection heuristics based on the RodBot appearance. Features are rejected if they are not (a) colinear with other features or (b) not equally spaced.}}{3}}
\newlabel{fig_rodbot_track}{{2}{3}}
\@writefile{toc}{\contentsline {subsection}{\numberline {III-C}Computer Vision}{3}}
\@writefile{toc}{\contentsline {subsubsection}{\numberline {III-C.1}Tracking the RodBot}{3}}
\newlabel{eq:track_score}{{3}{3}}
\newlabel{sec_obstacles}{{III-C.2}{3}}
\@writefile{toc}{\contentsline {subsubsection}{\numberline {III-C.2}Tracking Obstacles}{3}}
\newlabel{fig_bubbles_1}{{3a}{3}}
\newlabel{sub@fig_bubbles_1}{{(a)}{a}}
\newlabel{fig_bubbles_2}{{3b}{3}}
\newlabel{sub@fig_bubbles_2}{{(b)}{b}}
\newlabel{fig_bubbles_3}{{3c}{3}}
\newlabel{sub@fig_bubbles_3}{{(c)}{c}}
\newlabel{fig_crystals_1}{{3d}{3}}
\newlabel{sub@fig_crystals_1}{{(d)}{d}}
\newlabel{fig_crystals_2}{{3e}{3}}
\newlabel{sub@fig_crystals_2}{{(e)}{e}}
\newlabel{fig_crystals_3}{{3f}{3}}
\newlabel{sub@fig_crystals_3}{{(f)}{f}}
\@writefile{lof}{\contentsline {figure}{\numberline {3}{\ignorespaces \textbf  {Top}: image processing steps performed in detecting sub-millimeter diameter air bubbles. (a) original image (b) binary thresholding (c) canny edge detection. \textbf  {Bottom}: image processing steps for detecting protein crystals in a dish of buffer solution. (d) original image (e) adaptive thresholding and morphological closing (f) contour detection and filtering. }}{3}}
\@writefile{lof}{\contentsline {subfigure}{\numberline{(a)}{\ignorespaces {}}}{3}}
\@writefile{lof}{\contentsline {subfigure}{\numberline{(b)}{\ignorespaces {}}}{3}}
\@writefile{lof}{\contentsline {subfigure}{\numberline{(c)}{\ignorespaces {}}}{3}}
\@writefile{lof}{\contentsline {subfigure}{\numberline{(d)}{\ignorespaces {}}}{3}}
\@writefile{lof}{\contentsline {subfigure}{\numberline{(e)}{\ignorespaces {}}}{3}}
\@writefile{lof}{\contentsline {subfigure}{\numberline{(f)}{\ignorespaces {}}}{3}}
\newlabel{fig_obstacle_track}{{3}{3}}
\@writefile{toc}{\contentsline {subsection}{\numberline {III-D}Motion Planning}{3}}
\citation{Likhachev_05}
\citation{Soetanto_03}
\@writefile{toc}{\contentsline {subsubsection}{\numberline {III-D.1}Defining the Environment}{4}}
\@writefile{toc}{\contentsline {subsubsection}{\numberline {III-D.2}Motion Primitives}{4}}
\@writefile{toc}{\contentsline {subsubsection}{\numberline {III-D.3}Solving the Planning Problem}{4}}
\@writefile{toc}{\contentsline {subsection}{\numberline {III-E}Path-following Control}{4}}
\@writefile{toc}{\contentsline {subsubsection}{\numberline {III-E.1}RodBot Kinematics}{4}}
\@writefile{toc}{\contentsline {subsubsection}{\numberline {III-E.2}Virtual Target Based Path Follower}{4}}
\newlabel{eq_target}{{4}{4}}
\newlabel{fig_motion_control_1}{{4a}{4}}
\newlabel{sub@fig_motion_control_1}{{(a)}{a}}
\newlabel{fig_motion_control_2}{{4b}{4}}
\newlabel{sub@fig_motion_control_2}{{(b)}{b}}
\@writefile{lof}{\contentsline {figure}{\numberline {4}{\ignorespaces In (a) the problem with driving to the nearest point on the path, which may be physically unrealizable due to stiction. In (b) this is resolved by instead driving to a point $\mathbf  {P}(s)$ which moves forward along the path.}}{4}}
\@writefile{lof}{\contentsline {subfigure}{\numberline{(a)}{\ignorespaces {}}}{4}}
\@writefile{lof}{\contentsline {subfigure}{\numberline{(b)}{\ignorespaces {}}}{4}}
\newlabel{fig:motion_control}{{4}{4}}
\@writefile{toc}{\contentsline {section}{\numberline {IV}Experimental Evaluation}{4}}
\@writefile{toc}{\contentsline {subsection}{\numberline {IV-A}Obstacle-free Quantitative Evaluation}{4}}
\newlabel{sub:figure8}{{IV-A}{4}}
\newlabel{fig:figure8_a}{{5a}{5}}
\newlabel{sub@fig:figure8_a}{{(a)}{a}}
\newlabel{fig:figure8_b}{{5b}{5}}
\newlabel{sub@fig:figure8_b}{{(b)}{b}}
\newlabel{fig:figure8_c}{{5c}{5}}
\newlabel{sub@fig:figure8_c}{{(c)}{c}}
\newlabel{fig:figure8_d}{{5d}{5}}
\newlabel{sub@fig:figure8_d}{{(d)}{d}}
\@writefile{lof}{\contentsline {figure}{\numberline {5}{\ignorespaces Motion experiments at varying velocities and virtual target distances on an obstacle-free figure 8 Path. The path was generated with four waypoints with angles at multiples at $\pi /4$. The actual RodBot position was tracked manually frame-by-frame. The desired path is dotted and the traveled path is shown in solid. The area between the desired and traveled paths is filled in grey.}}{5}}
\@writefile{lof}{\contentsline {subfigure}{\numberline{(a)}{\ignorespaces {$\omega _m = 1$ Hz, $d = \SI {75}{\micro \metre }$}}}{5}}
\@writefile{lof}{\contentsline {subfigure}{\numberline{(b)}{\ignorespaces {$\omega _m = 5$ Hz, $d = \SI {180}{\micro \metre }$}}}{5}}
\@writefile{lof}{\contentsline {subfigure}{\numberline{(c)}{\ignorespaces {$\omega _m = 9$ Hz, $d = \SI {180}{\micro \metre }$}}}{5}}
\@writefile{lof}{\contentsline {subfigure}{\numberline{(d)}{\ignorespaces {$\omega _m = 10$ Hz, $d = \SI {250}{\micro \metre }$}}}{5}}
\newlabel{fig:figure8}{{5}{5}}
\newlabel{eq:area_score}{{5}{5}}
\@writefile{toc}{\contentsline {subsubsection}{\numberline {IV-A.1}Results at Low Velocities}{5}}
\newlabel{sub:results_high_v}{{IV-A.2}{5}}
\@writefile{toc}{\contentsline {subsubsection}{\numberline {IV-A.2}Results at High Velocities}{5}}
\@writefile{lot}{\contentsline {table}{\numberline {I}{\ignorespaces Numerical results from the motion experiments shown in Fig.\nobreakspace  {}5\hbox {}. }}{5}}
\newlabel{tab:figure8}{{I}{5}}
\@writefile{toc}{\contentsline {subsection}{\numberline {IV-B}Motion in Cluttered Environments}{5}}
\@writefile{toc}{\contentsline {section}{\numberline {V}Conclusion}{5}}
\bibstyle{IEEEtran}
\bibdata{IEEEabrv,robot_iros}
\bibcite{Chiou_05}{1}
\bibcite{Khalil_14_01}{2}
\bibcite{Behkam_06}{3}
\bibcite{Pelrine_12}{4}
\bibcite{Tamadazte_10}{5}
\bibcite{Tung_13_01}{6}
\bibcite{Pieters_14}{7}
\bibcite{Carvalho_09}{8}
\bibcite{Riviere_97}{9}
\bibcite{Diller_13}{10}
\bibcite{Cappeleri_11}{11}
\bibcite{Ju_11}{12}
\bibcite{Banerjee_13}{13}
\bibcite{Arcese_13}{14}
\bibcite{Belharet_10}{15}
\bibcite{Temel_13}{16}
\bibcite{Khalil_13}{17}
\bibcite{Zhang_09}{18}
\bibcite{Marino_14}{19}
\bibcite{Ghanbari_14}{20}
\bibcite{Belharet_12}{21}
\bibcite{Kratochvil_14}{22}
\bibcite{Abbott_07}{23}
\bibcite{Peyer_13}{24}
\bibcite{Canny_86}{25}
\bibcite{Suzuki_85}{26}
\bibcite{Karaman_11}{27}
\bibcite{Likhachev_05}{28}
\bibcite{Soetanto_03}{29}
\newlabel{fig_comp_1}{{6a}{6}}
\newlabel{sub@fig_comp_1}{{(a)}{a}}
\newlabel{fig_comp_2}{{6b}{6}}
\newlabel{sub@fig_comp_2}{{(b)}{b}}
\@writefile{lof}{\contentsline {figure}{\numberline {6}{\ignorespaces Composite images representing the motion of a RodBot in environments containing crystals. The RodBot is marked with a blue rectangle and the detected crystals are shown in red. The automatically planned path is shown in blue. (a) Motion from the crystals 1,2 to crystal 3 (b) Motion to crystal 3 while avoiding crystals 1,2.}}{6}}
\newlabel{fig_comp}{{6}{6}}
\@writefile{toc}{\contentsline {section}{References}{6}}
